…
    ## [1] 0.2617059

## Cross Validation – `modelr`

``` r
cv_df <- 
  crossv_mc(nonlin_df, 100)
```

``` r
cv_df %>% pull(train) %>% .[[1]] %>% as_tibble()
```

    ## # A tibble: 79 × 3
    ##       id      x       y
    ##    <int>  <dbl>   <dbl>
    ##  1     1 0.941  -3.15  
    ##  2     2 0.891  -2.57  
    ##  3     4 0.0353  0.439 
    ##  4     5 0.256   0.838 
    ##  5     8 0.542  -0.0541
    ##  6    10 0.305   1.02  
    ##  7    11 0.687  -0.815 
    ##  8    13 0.248   0.945 
    ##  9    14 0.985  -3.98  
    ## 10    16 0.810  -2.04  
    ## # … with 69 more rows

``` r
cv_df %>% pull(test) %>% .[[1]] %>% as_tibble()
```

    ## # A tibble: 21 × 3
    ##       id       x       y
    ##    <int>   <dbl>   <dbl>
    ##  1     3 0.0991   0.414 
    ##  2     6 0.107    0.927 
    ##  3     7 0.821   -2.34  
    ##  4     9 0.309    0.872 
    ##  5    12 0.804   -1.67  
    ##  6    15 0.338    1.69  
    ##  7    20 0.791   -1.51  
    ##  8    21 0.202    0.649 
    ##  9    22 0.511    0.944 
    ## 10    24 0.00650 -0.0381
    ## # … with 11 more rows
…
